\relax 
\providecommand \oddpage@label [2]{}
\@writefile{toc}{\@ifundefined {etoctocstyle}{\let \etoc@startlocaltoc \@gobble \let \etoc@settocdepth \@gobble \let \etoc@depthtag \@gobble \let \etoc@setlocaltop \@gobble }{}}
\@writefile{toc}{\contentsline {chapter}{\numberline {1}Class Index}{1}\protected@file@percent }
\@writefile{lof}{\addvspace {10\p@ }}
\@writefile{lot}{\addvspace {10\p@ }}
\@writefile{toc}{\contentsline {section}{\numberline {1.1}Class List}{1}\protected@file@percent }
\@writefile{toc}{\contentsline {chapter}{\numberline {2}File Index}{3}\protected@file@percent }
\@writefile{lof}{\addvspace {10\p@ }}
\@writefile{lot}{\addvspace {10\p@ }}
\@writefile{toc}{\contentsline {section}{\numberline {2.1}File List}{3}\protected@file@percent }
\@writefile{toc}{\contentsline {chapter}{\numberline {3}Class Documentation}{5}\protected@file@percent }
\@writefile{lof}{\addvspace {10\p@ }}
\@writefile{lot}{\addvspace {10\p@ }}
\@writefile{toc}{\contentsline {section}{\numberline {3.1}Motor\discretionary {\mbox  {\scriptsize  $\hookleftarrow  $}}{}{}\_\discretionary {\mbox  {\scriptsize  $\hookleftarrow  $}}{}{}t Class Reference}{5}\protected@file@percent }
\newlabel{class_motor__t}{{3.1}{5}}
\@writefile{toc}{\contentsline {subsection}{\numberline {3.1.1}Detailed Description}{6}\protected@file@percent }
\@writefile{toc}{\contentsline {subsection}{\numberline {3.1.2}Constructor \& Destructor Documentation}{6}\protected@file@percent }
\newlabel{class_motor__t_afb2404b56ac6475700273466b7c85d11}{{3.1.2}{6}}
\@writefile{toc}{\contentsline {subsubsection}{\numberline {3.1.2.1}Motor\_t()}{6}\protected@file@percent }
\@writefile{toc}{\contentsline {subsection}{\numberline {3.1.3}Member Function Documentation}{6}\protected@file@percent }
\newlabel{class_motor__t_af3d12f25293a55dd338e9cd8cd81007f}{{3.1.3}{6}}
\@writefile{toc}{\contentsline {subsubsection}{\numberline {3.1.3.1}Configure()}{6}\protected@file@percent }
\gdef \LT@i {\LT@entry 
    {3}{70.33595pt}\LT@entry 
    {3}{391.86752pt}}
\newlabel{class_motor__t_a4205ebfcf8b209adc3643669ea5d9a24}{{3.1.3.1}{7}}
\@writefile{toc}{\contentsline {subsubsection}{\numberline {3.1.3.2}Deinit()}{7}\protected@file@percent }
\newlabel{class_motor__t_ab56f7027ac774755109ac2e530ee5e42}{{3.1.3.2}{7}}
\@writefile{toc}{\contentsline {subsubsection}{\numberline {3.1.3.3}Init()}{7}\protected@file@percent }
\newlabel{class_motor__t_a2ccbc5d03bc019ec165fc0add215e861}{{3.1.3.3}{7}}
\@writefile{toc}{\contentsline {subsubsection}{\numberline {3.1.3.4}Set()}{7}\protected@file@percent }
\gdef \LT@ii {\LT@entry 
    {3}{45.82024pt}\LT@entry 
    {3}{140.2963pt}}
\@writefile{toc}{\contentsline {subsection}{\numberline {3.1.4}Member Data Documentation}{8}\protected@file@percent }
\newlabel{class_motor__t_a10784fcab948aca60c9b7c0d8834190b}{{3.1.4}{8}}
\@writefile{toc}{\contentsline {subsubsection}{\numberline {3.1.4.1}Deadband\_Sp}{8}\protected@file@percent }
\newlabel{class_motor__t_a426107cec876f58d1e1f16d47e9a922f}{{3.1.4.1}{8}}
\@writefile{toc}{\contentsline {subsubsection}{\numberline {3.1.4.2}Enable}{8}\protected@file@percent }
\newlabel{class_motor__t_ac2ca65fec05ccef123fc71038845aa71}{{3.1.4.2}{8}}
\@writefile{toc}{\contentsline {subsubsection}{\numberline {3.1.4.3}Maximum\_Op}{8}\protected@file@percent }
\newlabel{class_motor__t_a5e730f7ab724853990891b7c500b538d}{{3.1.4.3}{8}}
\@writefile{toc}{\contentsline {subsubsection}{\numberline {3.1.4.4}Maximum\_Sp}{9}\protected@file@percent }
\newlabel{class_motor__t_a788757624539ad15ebd58e1c576661bb}{{3.1.4.4}{9}}
\@writefile{toc}{\contentsline {subsubsection}{\numberline {3.1.4.5}Minimum\_Op}{9}\protected@file@percent }
\newlabel{class_motor__t_a3daa1f1705c1301a123a21ed4c7ddc6b}{{3.1.4.5}{9}}
\@writefile{toc}{\contentsline {subsubsection}{\numberline {3.1.4.6}Minimum\_Sp}{9}\protected@file@percent }
\newlabel{class_motor__t_a79f15a8baf1c154d1730c0fd28afb9f9}{{3.1.4.6}{9}}
\@writefile{toc}{\contentsline {subsubsection}{\numberline {3.1.4.7}Startup\_Sp}{9}\protected@file@percent }
\newlabel{class_motor__t_a79ee9bf95dec57c2d2d6351f9844bfcd}{{3.1.4.7}{9}}
\@writefile{toc}{\contentsline {subsubsection}{\numberline {3.1.4.8}Value1\_Op}{9}\protected@file@percent }
\newlabel{class_motor__t_a552b4f36c5dc0d66e62fbd83ee0994ef}{{3.1.4.8}{9}}
\@writefile{toc}{\contentsline {subsubsection}{\numberline {3.1.4.9}Value2\_Op}{10}\protected@file@percent }
\newlabel{class_motor__t_ae5ed637deae388ed7dee4121465588a9}{{3.1.4.9}{10}}
\@writefile{toc}{\contentsline {subsubsection}{\numberline {3.1.4.10}Value\_Sp}{10}\protected@file@percent }
\@writefile{toc}{\contentsline {chapter}{\numberline {4}File Documentation}{11}\protected@file@percent }
\@writefile{lof}{\addvspace {10\p@ }}
\@writefile{lot}{\addvspace {10\p@ }}
\@writefile{toc}{\contentsline {section}{\numberline {4.1}C\discretionary {\mbox  {\scriptsize  $\hookleftarrow  $}}{}{}:/\discretionary {\mbox  {\scriptsize  $\hookleftarrow  $}}{}{}Users/ntoupin/\discretionary {\mbox  {\scriptsize  $\hookleftarrow  $}}{}{}Documents/\discretionary {\mbox  {\scriptsize  $\hookleftarrow  $}}{}{}Arduino/libraries/nt-\/motor/\discretionary {\mbox  {\scriptsize  $\hookleftarrow  $}}{}{}Keywords.txt File Reference}{11}\protected@file@percent }
\newlabel{_keywords_8txt}{{4.1}{11}}
\@writefile{toc}{\contentsline {section}{\numberline {4.2}C\discretionary {\mbox  {\scriptsize  $\hookleftarrow  $}}{}{}:/\discretionary {\mbox  {\scriptsize  $\hookleftarrow  $}}{}{}Users/ntoupin/\discretionary {\mbox  {\scriptsize  $\hookleftarrow  $}}{}{}Documents/\discretionary {\mbox  {\scriptsize  $\hookleftarrow  $}}{}{}Arduino/libraries/nt-\/motor/\discretionary {\mbox  {\scriptsize  $\hookleftarrow  $}}{}{}N\discretionary {\mbox  {\scriptsize  $\hookleftarrow  $}}{}{}T\discretionary {\mbox  {\scriptsize  $\hookleftarrow  $}}{}{}\_\discretionary {\mbox  {\scriptsize  $\hookleftarrow  $}}{}{}\discretionary {\mbox  {\scriptsize  $\hookleftarrow  $}}{}{}Motor.cpp File Reference}{11}\protected@file@percent }
\newlabel{_n_t___motor_8cpp}{{4.2}{11}}
\@writefile{toc}{\contentsline {subsection}{\numberline {4.2.1}Detailed Description}{11}\protected@file@percent }
\@writefile{toc}{\contentsline {section}{\numberline {4.3}C\discretionary {\mbox  {\scriptsize  $\hookleftarrow  $}}{}{}:/\discretionary {\mbox  {\scriptsize  $\hookleftarrow  $}}{}{}Users/ntoupin/\discretionary {\mbox  {\scriptsize  $\hookleftarrow  $}}{}{}Documents/\discretionary {\mbox  {\scriptsize  $\hookleftarrow  $}}{}{}Arduino/libraries/nt-\/motor/\discretionary {\mbox  {\scriptsize  $\hookleftarrow  $}}{}{}N\discretionary {\mbox  {\scriptsize  $\hookleftarrow  $}}{}{}T\discretionary {\mbox  {\scriptsize  $\hookleftarrow  $}}{}{}\_\discretionary {\mbox  {\scriptsize  $\hookleftarrow  $}}{}{}\discretionary {\mbox  {\scriptsize  $\hookleftarrow  $}}{}{}Motor.h File Reference}{11}\protected@file@percent }
\newlabel{_n_t___motor_8h}{{4.3}{11}}
\@writefile{toc}{\contentsline {subsection}{\numberline {4.3.1}Detailed Description}{12}\protected@file@percent }
\@writefile{toc}{\contentsline {subsection}{\numberline {4.3.2}Macro Definition Documentation}{12}\protected@file@percent }
\newlabel{_n_t___motor_8h_aa93f0eb578d23995850d61f7d61c55c1}{{4.3.2}{12}}
\@writefile{toc}{\contentsline {subsubsection}{\numberline {4.3.2.1}FALSE}{12}\protected@file@percent }
\newlabel{_n_t___motor_8h_a615c141a9779b5a1ce8d7e79d6251166}{{4.3.2.1}{12}}
\@writefile{toc}{\contentsline {subsubsection}{\numberline {4.3.2.2}NT\_Motor\_h}{12}\protected@file@percent }
\newlabel{_n_t___motor_8h_aa8cecfc5c5c054d2875c03e77b7be15d}{{4.3.2.2}{12}}
\@writefile{toc}{\contentsline {subsubsection}{\numberline {4.3.2.3}TRUE}{12}\protected@file@percent }
\@writefile{toc}{\contentsline {chapter}{Index}{13}\protected@file@percent }
